{
    "action-inputs": [
        {
            "allow-multiple": false,
            "available-all-servers": false,
            "description": null,
            "field-dependency-controlling-set": [],
            "field-dependency-dependent-set": [],
            "global-options": [],
            "hide-if-default-value": false,
            "label": "Packages",
            "name": "packages",
            "relevant-osfamilies": [],
            "required": true,
            "show-as-attribute": false,
            "show-on-servers": false,
            "type": "STR"
        }
    ],
    "commandline-args": null,
    "credentials": {},
    "description": "",
    "environments": [],
    "execution-timeout": 1800,
    "groups": [],
    "max-retries": 0,
    "name": "Install Yum Package",
    "remove-after-run": true,
    "resource-technologies": [],
    "run-on-server": "The server(s) in context",
    "run-with-sudo": true,
    "script-filename": "remote_script_vsbifR2_MdFecYw_zadciHj",
    "shared": "True",
    "target-os-families": [
        "Linux -> Amazon Linux",
        "Linux -> CentOS",
        "Linux -> Fedora",
        "Linux -> Oracle Enterprise Linux",
        "Linux -> Red Hat"
    ],
    "type": "Remote Script"
}